{
    "workbench.colorTheme": "paddy-dark",
    "editor.fontFamily": "'FuraCode Nerd Font'",
    "editor.tokenColorCustomizations": {
        "comments": "#4E944C"
    },
    "window.restoreWindows": "none",
    "workbench.editor.restoreViewState": false,
    "docker.commands.build": "docker build --rm -f \"${dockerfile}\" -t ${tag} \"${context}\"",
    "window.menuBarVisibility": "compact",
    "window.titleBarStyle": "custom",
    "workbench.iconTheme": "material-icon-theme",
    "editor.bracketPairColorization.independentColorPoolPerBracketType": true,
    "editor.bracketPairColorization.enabled": true
}
